%YAML 1.1
%TAG !u! tag:unity3d.com,2011:
--- !u!74 &7400000
AnimationClip:
  m_ObjectHideFlags: 0
  m_CorrespondingSourceObject: {fileID: 0}
  m_PrefabInstance: {fileID: 0}
  m_PrefabAsset: {fileID: 0}
  m_Name: Ataque
  serializedVersion: 7
  m_Legacy: 0
  m_Compressed: 0
  m_UseHighQualityCurve: 1
  m_RotationCurves: []
  m_CompressedRotationCurves: []
  m_EulerCurves: []
  m_PositionCurves: []
  m_ScaleCurves: []
  m_FloatCurves:
  - serializedVersion: 2
    curve:
      serializedVersion: 2
      m_Curve:
      - serializedVersion: 3
        time: 0
        value: 1
        inSlope: Infinity
        outSlope: Infinity
        tangentMode: 103
        weightedMode: 0
        inWeight: 0
        outWeight: 0
      - serializedVersion: 3
        time: 0.7083333
        value: 0
        inSlope: Infinity
        outSlope: Infinity
        tangentMode: 103
        weightedMode: 0
        inWeight: 0
        outWeight: 0
      - serializedVersion: 3
        time: 0.75
        value: 0
        inSlope: Infinity
        outSlope: Infinity
        tangentMode: 103
        weightedMode: 0
        inWeight: 0
        outWeight: 0
      m_PreInfinity: 2
      m_PostInfinity: 2
      m_RotationOrder: 4
    attribute: ataque
    path: 
    classID: 114
    script: {fileID: 11500000, guid: 5ba8179b28f2ce649a2addb662b0aa26, type: 3}
    flags: 0
  - serializedVersion: 2
    curve:
      serializedVersion: 2
      m_Curve:
      - serializedVersion: 3
        time: 0
        value: 0
        inSlope: Infinity
        outSlope: Infinity
        tangentMode: 103
        weightedMode: 0
        inWeight: 0
        outWeight: 0
      - serializedVersion: 3
        time: 0.41666666
        value: 1
        inSlope: Infinity
        outSlope: Infinity
        tangentMode: 103
        weightedMode: 0
        inWeight: 0
        outWeight: 0
      - serializedVersion: 3
        time: 0.45833334
        value: 0
        inSlope: Infinity
        outSlope: Infinity
        tangentMode: 103
        weightedMode: 0
        inWeight: 0
        outWeight: 0
      - serializedVersion: 3
        time: 0.75
        value: 0
        inSlope: Infinity
        outSlope: Infinity
        tangentMode: 103
        weightedMode: 0
        inWeight: 0
        outWeight: 0
      m_PreInfinity: 2
      m_PostInfinity: 2
      m_RotationOrder: 4
    attribute: disparar
    path: 
    classID: 114
    script: {fileID: 11500000, guid: 5ba8179b28f2ce649a2addb662b0aa26, type: 3}
    flags: 0
  m_PPtrCurves:
  - serializedVersion: 2
    curve:
    - time: 0
      value: {fileID: -635831774, guid: f7a4c9797664fd147ac1c5b2d5403807, type: 3}
    - time: 0.041666668
      value: {fileID: -34334664, guid: f7a4c9797664fd147ac1c5b2d5403807, type: 3}
    - time: 0.083333336
      value: {fileID: 1418791857, guid: f7a4c9797664fd147ac1c5b2d5403807, type: 3}
    - time: 0.125
      value: {fileID: 1315145588, guid: f7a4c9797664fd147ac1c5b2d5403807, type: 3}
    - time: 0.16666667
      value: {fileID: -1031205002, guid: f7a4c9797664fd147ac1c5b2d5403807, type: 3}
    - time: 0.20833333
      value: {fileID: 785342909, guid: f7a4c9797664fd147ac1c5b2d5403807, type: 3}
    - time: 0.25
      value: {fileID: 1787084308, guid: f7a4c9797664fd147ac1c5b2d5403807, type: 3}
    - time: 0.29166666
      value: {fileID: 773703708, guid: f7a4c9797664fd147ac1c5b2d5403807, type: 3}
    - time: 0.33333334
      value: {fileID: -1113750517, guid: f7a4c9797664fd147ac1c5b2d5403807, type: 3}
    - time: 0.375
      value: {fileID: 1610835481, guid: f7a4c9797664fd147ac1c5b2d5403807, type: 3}
    - time: 0.41666666
      value: {fileID: -673842455, guid: f7a4c9797664fd147ac1c5b2d5403807, type: 3}
    - time: 0.45833334
      value: {fileID: 250642595, guid: f7a4c9797664fd147ac1c5b2d5403807, type: 3}
    - time: 0.5
      value: {fileID: 1279768987, guid: f7a4c9797664fd147ac1c5b2d5403807, type: 3}
    - time: 0.5416667
      value: {fileID: -1559944717, guid: f7a4c9797664fd147ac1c5b2d5403807, type: 3}
    - time: 0.5833333
      value: {fileID: 445733432, guid: f7a4c9797664fd147ac1c5b2d5403807, type: 3}
    - time: 0.625
      value: {fileID: 1036725813, guid: f7a4c9797664fd147ac1c5b2d5403807, type: 3}
    - time: 0.6666667
      value: {fileID: -86665499, guid: f7a4c9797664fd147ac1c5b2d5403807, type: 3}
    - time: 0.7083333
      value: {fileID: -632051131, guid: f7a4c9797664fd147ac1c5b2d5403807, type: 3}
    attribute: m_Sprite
    path: 
    classID: 212
    script: {fileID: 0}
    flags: 2
  m_SampleRate: 24
  m_WrapMode: 0
  m_Bounds:
    m_Center: {x: 0, y: 0, z: 0}
    m_Extent: {x: 0, y: 0, z: 0}
  m_ClipBindingConstant:
    genericBindings:
    - serializedVersion: 2
      path: 0
      attribute: 3338776886
      script: {fileID: 11500000, guid: 5ba8179b28f2ce649a2addb662b0aa26, type: 3}
      typeID: 114
      customType: 0
      isPPtrCurve: 0
      isIntCurve: 0
      isSerializeReferenceCurve: 0
    - serializedVersion: 2
      path: 0
      attribute: 1305182480
      script: {fileID: 11500000, guid: 5ba8179b28f2ce649a2addb662b0aa26, type: 3}
      typeID: 114
      customType: 0
      isPPtrCurve: 0
      isIntCurve: 0
      isSerializeReferenceCurve: 0
    - serializedVersion: 2
      path: 0
      attribute: 0
      script: {fileID: 0}
      typeID: 212
      customType: 23
      isPPtrCurve: 1
      isIntCurve: 0
      isSerializeReferenceCurve: 0
    pptrCurveMapping:
    - {fileID: -635831774, guid: f7a4c9797664fd147ac1c5b2d5403807, type: 3}
    - {fileID: -34334664, guid: f7a4c9797664fd147ac1c5b2d5403807, type: 3}
    - {fileID: 1418791857, guid: f7a4c9797664fd147ac1c5b2d5403807, type: 3}
    - {fileID: 1315145588, guid: f7a4c9797664fd147ac1c5b2d5403807, type: 3}
    - {fileID: -1031205002, guid: f7a4c9797664fd147ac1c5b2d5403807, type: 3}
    - {fileID: 785342909, guid: f7a4c9797664fd147ac1c5b2d5403807, type: 3}
    - {fileID: 1787084308, guid: f7a4c9797664fd147ac1c5b2d5403807, type: 3}
    - {fileID: 773703708, guid: f7a4c9797664fd147ac1c5b2d5403807, type: 3}
    - {fileID: -1113750517, guid: f7a4c9797664fd147ac1c5b2d5403807, type: 3}
    - {fileID: 1610835481, guid: f7a4c9797664fd147ac1c5b2d5403807, type: 3}
    - {fileID: -673842455, guid: f7a4c9797664fd147ac1c5b2d5403807, type: 3}
    - {fileID: 250642595, guid: f7a4c9797664fd147ac1c5b2d5403807, type: 3}
    - {fileID: 1279768987, guid: f7a4c9797664fd147ac1c5b2d5403807, type: 3}
    - {fileID: -1559944717, guid: f7a4c9797664fd147ac1c5b2d5403807, type: 3}
    - {fileID: 445733432, guid: f7a4c9797664fd147ac1c5b2d5403807, type: 3}
    - {fileID: 1036725813, guid: f7a4c9797664fd147ac1c5b2d5403807, type: 3}
    - {fileID: -86665499, guid: f7a4c9797664fd147ac1c5b2d5403807, type: 3}
    - {fileID: -632051131, guid: f7a4c9797664fd147ac1c5b2d5403807, type: 3}
  m_AnimationClipSettings:
    serializedVersion: 2
    m_AdditiveReferencePoseClip: {fileID: 0}
    m_AdditiveReferencePoseTime: 0
    m_StartTime: 0
    m_StopTime: 0.75
    m_OrientationOffsetY: 0
    m_Level: 0
    m_CycleOffset: 0
    m_HasAdditiveReferencePose: 0
    m_LoopTime: 1
    m_LoopBlend: 0
    m_LoopBlendOrientation: 0
    m_LoopBlendPositionY: 0
    m_LoopBlendPositionXZ: 0
    m_KeepOriginalOrientation: 0
    m_KeepOriginalPositionY: 1
    m_KeepOriginalPositionXZ: 0
    m_HeightFromFeet: 0
    m_Mirror: 0
  m_EditorCurves:
  - serializedVersion: 2
    curve:
      serializedVersion: 2
      m_Curve:
      - serializedVersion: 3
        time: 0
        value: 1
        inSlope: Infinity
        outSlope: Infinity
        tangentMode: 103
        weightedMode: 0
        inWeight: 0
        outWeight: 0
      - serializedVersion: 3
        time: 0.7083333
        value: 0
        inSlope: Infinity
        outSlope: Infinity
        tangentMode: 103
        weightedMode: 0
        inWeight: 0
        outWeight: 0
      - serializedVersion: 3
        time: 0.75
        value: 0
        inSlope: Infinity
        outSlope: Infinity
        tangentMode: 103
        weightedMode: 0
        inWeight: 0
        outWeight: 0
      m_PreInfinity: 2
      m_PostInfinity: 2
      m_RotationOrder: 4
    attribute: ataque
    path: 
    classID: 114
    script: {fileID: 11500000, guid: 5ba8179b28f2ce649a2addb662b0aa26, type: 3}
    flags: 0
  - serializedVersion: 2
    curve:
      serializedVersion: 2
      m_Curve:
      - serializedVersion: 3
        time: 0
        value: 0
        inSlope: Infinity
        outSlope: Infinity
        tangentMode: 103
        weightedMode: 0
        inWeight: 0
        outWeight: 0
      - serializedVersion: 3
        time: 0.41666666
        value: 1
        inSlope: Infinity
        outSlope: Infinity
        tangentMode: 103
        weightedMode: 0
        inWeight: 0
        outWeight: 0
      - serializedVersion: 3
        time: 0.45833334
        value: 0
        inSlope: Infinity
        outSlope: Infinity
        tangentMode: 103
        weightedMode: 0
        inWeight: 0
        outWeight: 0
      - serializedVersion: 3
        time: 0.75
        value: 0
        inSlope: Infinity
        outSlope: Infinity
        tangentMode: 103
        weightedMode: 0
        inWeight: 0
        outWeight: 0
      m_PreInfinity: 2
      m_PostInfinity: 2
      m_RotationOrder: 4
    attribute: disparar
    path: 
    classID: 114
    script: {fileID: 11500000, guid: 5ba8179b28f2ce649a2addb662b0aa26, type: 3}
    flags: 0
  m_EulerEditorCurves: []
  m_HasGenericRootTransform: 0
  m_HasMotionFloatCurves: 0
  m_Events: []
