%YAML 1.1
%TAG !u! tag:unity3d.com,2011:
--- !u!74 &7400000
AnimationClip:
  m_ObjectHideFlags: 0
  m_CorrespondingSourceObject: {fileID: 0}
  m_PrefabInstance: {fileID: 0}
  m_PrefabAsset: {fileID: 0}
  m_Name: Salto
  serializedVersion: 7
  m_Legacy: 0
  m_Compressed: 0
  m_UseHighQualityCurve: 1
  m_RotationCurves: []
  m_CompressedRotationCurves: []
  m_EulerCurves: []
  m_PositionCurves: []
  m_ScaleCurves: []
  m_FloatCurves: []
  m_PPtrCurves:
  - serializedVersion: 2
    curve:
    - time: 0
      value: {fileID: -1163240425, guid: ad76b32296ad3064c8f9aede8b718c3e, type: 3}
    - time: 0.041666668
      value: {fileID: 2037183927, guid: ad76b32296ad3064c8f9aede8b718c3e, type: 3}
    - time: 0.083333336
      value: {fileID: -1247788884, guid: ad76b32296ad3064c8f9aede8b718c3e, type: 3}
    - time: 0.125
      value: {fileID: -1233151579, guid: ad76b32296ad3064c8f9aede8b718c3e, type: 3}
    - time: 0.16666667
      value: {fileID: 989217836, guid: ad76b32296ad3064c8f9aede8b718c3e, type: 3}
    - time: 0.20833333
      value: {fileID: -1916005469, guid: ad76b32296ad3064c8f9aede8b718c3e, type: 3}
    - time: 0.25
      value: {fileID: 496137789, guid: ad76b32296ad3064c8f9aede8b718c3e, type: 3}
    - time: 0.29166666
      value: {fileID: 1395207257, guid: ad76b32296ad3064c8f9aede8b718c3e, type: 3}
    - time: 0.33333334
      value: {fileID: 1646651127, guid: ad76b32296ad3064c8f9aede8b718c3e, type: 3}
    - time: 0.375
      value: {fileID: 2008459491, guid: ad76b32296ad3064c8f9aede8b718c3e, type: 3}
    - time: 0.41666666
      value: {fileID: -1540960044, guid: ad76b32296ad3064c8f9aede8b718c3e, type: 3}
    - time: 0.45833334
      value: {fileID: 114415442, guid: ad76b32296ad3064c8f9aede8b718c3e, type: 3}
    attribute: m_Sprite
    path: 
    classID: 212
    script: {fileID: 0}
    flags: 2
  m_SampleRate: 24
  m_WrapMode: 0
  m_Bounds:
    m_Center: {x: 0, y: 0, z: 0}
    m_Extent: {x: 0, y: 0, z: 0}
  m_ClipBindingConstant:
    genericBindings:
    - serializedVersion: 2
      path: 0
      attribute: 0
      script: {fileID: 0}
      typeID: 212
      customType: 23
      isPPtrCurve: 1
      isIntCurve: 0
      isSerializeReferenceCurve: 0
    pptrCurveMapping:
    - {fileID: -1163240425, guid: ad76b32296ad3064c8f9aede8b718c3e, type: 3}
    - {fileID: 2037183927, guid: ad76b32296ad3064c8f9aede8b718c3e, type: 3}
    - {fileID: -1247788884, guid: ad76b32296ad3064c8f9aede8b718c3e, type: 3}
    - {fileID: -1233151579, guid: ad76b32296ad3064c8f9aede8b718c3e, type: 3}
    - {fileID: 989217836, guid: ad76b32296ad3064c8f9aede8b718c3e, type: 3}
    - {fileID: -1916005469, guid: ad76b32296ad3064c8f9aede8b718c3e, type: 3}
    - {fileID: 496137789, guid: ad76b32296ad3064c8f9aede8b718c3e, type: 3}
    - {fileID: 1395207257, guid: ad76b32296ad3064c8f9aede8b718c3e, type: 3}
    - {fileID: 1646651127, guid: ad76b32296ad3064c8f9aede8b718c3e, type: 3}
    - {fileID: 2008459491, guid: ad76b32296ad3064c8f9aede8b718c3e, type: 3}
    - {fileID: -1540960044, guid: ad76b32296ad3064c8f9aede8b718c3e, type: 3}
    - {fileID: 114415442, guid: ad76b32296ad3064c8f9aede8b718c3e, type: 3}
  m_AnimationClipSettings:
    serializedVersion: 2
    m_AdditiveReferencePoseClip: {fileID: 0}
    m_AdditiveReferencePoseTime: 0
    m_StartTime: 0
    m_StopTime: 0.5
    m_OrientationOffsetY: 0
    m_Level: 0
    m_CycleOffset: 0
    m_HasAdditiveReferencePose: 0
    m_LoopTime: 1
    m_LoopBlend: 0
    m_LoopBlendOrientation: 0
    m_LoopBlendPositionY: 0
    m_LoopBlendPositionXZ: 0
    m_KeepOriginalOrientation: 0
    m_KeepOriginalPositionY: 1
    m_KeepOriginalPositionXZ: 0
    m_HeightFromFeet: 0
    m_Mirror: 0
  m_EditorCurves: []
  m_EulerEditorCurves: []
  m_HasGenericRootTransform: 0
  m_HasMotionFloatCurves: 0
  m_Events: []
